<?xml version="1.0" encoding="UTF-8" standalone="no"?>
<svg
   xmlns:dc="http://purl.org/dc/elements/1.1/"
   xmlns:cc="http://creativecommons.org/ns#"
   xmlns:rdf="http://www.w3.org/1999/02/22-rdf-syntax-ns#"
   xmlns:svg="http://www.w3.org/2000/svg"
   xmlns="http://www.w3.org/2000/svg"
   xmlns:xlink="http://www.w3.org/1999/xlink"
   viewBox="0 0 16 12.30825"
   version="1.1"
   id="svg46">
  <metadata
     id="metadata50">
    <rdf:RDF>
      <cc:Work
         rdf:about="">
        <dc:format>image/svg+xml</dc:format>
        <dc:type
           rdf:resource="http://purl.org/dc/dcmitype/StillImage" />
        <dc:title></dc:title>
      </cc:Work>
    </rdf:RDF>
  </metadata>
  <defs
     id="defs29">
    <filter
       id="prefix__a"
       width="2.438"
       height="2.438"
       x="-0.71900004"
       y="-0.71900004"
       filterUnits="objectBoundingBox">
      <feOffset
         dy="4"
         in="SourceAlpha"
         result="shadowOffsetOuter1"
         id="feOffset2" />
      <feGaussianBlur
         in="shadowOffsetOuter1"
         result="shadowBlurOuter1"
         stdDeviation="4"
         id="feGaussianBlur4" />
      <feColorMatrix
         in="shadowBlurOuter1"
         result="shadowMatrixOuter1"
         values="0 0 0 0 0 0 0 0 0 0 0 0 0 0 0 0 0 0 0.13 0"
         id="feColorMatrix6" />
      <feMerge
         id="feMerge12">
        <feMergeNode
           in="shadowMatrixOuter1"
           id="feMergeNode8" />
        <feMergeNode
           in="SourceGraphic"
           id="feMergeNode10" />
      </feMerge>
    </filter>
    <filter
       id="prefix__c"
       width="2.533"
       height="2.533"
       x="-0.76699996"
       y="-0.76699996"
       filterUnits="objectBoundingBox">
      <feOffset
         dy="4"
         in="SourceAlpha"
         result="shadowOffsetOuter1"
         id="feOffset15" />
      <feGaussianBlur
         in="shadowOffsetOuter1"
         result="shadowBlurOuter1"
         stdDeviation="4"
         id="feGaussianBlur17" />
      <feColorMatrix
         in="shadowBlurOuter1"
         result="shadowMatrixOuter1"
         values="0 0 0 0 0 0 0 0 0 0 0 0 0 0 0 0 0 0 0.13 0"
         id="feColorMatrix19" />
      <feMerge
         id="feMerge25">
        <feMergeNode
           in="shadowMatrixOuter1"
           id="feMergeNode21" />
        <feMergeNode
           in="SourceGraphic"
           id="feMergeNode23" />
      </feMerge>
    </filter>
    <path
       id="prefix__b"
       d="m 14.594,11.257 c 0.347,-0.343 0.91,-0.343 1.257,0 0.347,0.344 0.347,0.9 0,1.244 l -3.817,3.773 h 12.077 c 0.453,0 0.827,0.336 0.882,0.77 L 25,17.154 c 0,0.485 -0.398,0.879 -0.889,0.879 l -12.077,-0.001 3.817,3.775 c 0.318,0.315 0.344,0.809 0.08,1.153 l -0.08,0.09 c -0.347,0.344 -0.91,0.344 -1.257,0 L 9.26,17.775 9.243,17.758 C 9.229,17.744 9.216,17.728 9.203,17.712 9.19,17.698 9.179,17.684 9.168,17.669 9.158,17.655 9.148,17.641 9.14,17.627 9.128,17.61 9.118,17.592 9.108,17.574 9.08,17.524 9.057,17.469 9.039,17.412 L 9.022,17.351 C 9.008,17.287 9,17.221 9,17.154 9,17.079 9.01,17.007 9.027,16.937 l 0.014,-0.049 c 0.018,-0.054 0.04,-0.106 0.067,-0.155 l 0.031,-0.052 0.03,-0.043 C 9.196,16.601 9.227,16.566 9.26,16.532 l -0.062,0.069 c 0.016,-0.02 0.033,-0.039 0.05,-0.057 L 9.26,16.532 Z" />
    <mask
       fill="#fff"
       id="prefix__d">
      <use
         height="100%"
         width="100%"
         y="0"
         x="0"
         id="use35"
         xlink:href="#prefix__b" />
    </mask>
  </defs>
  <use
     height="100%"
     width="100%"
     y="0"
     x="0"
     style="fill:#ffffff;fill-rule:nonzero"
     id="use38"
     xlink:href="#prefix__b"
     transform="matrix(1,0,0,-1,-9,23.308)" />
  <g
     style="fill:#e7e6ff;fill-rule:evenodd;filter:url(#prefix__c)"
     id="g42"
     mask="url(#prefix__d)"
     transform="rotate(180,11.635593,18.569254)">
    <path
       id="path40"
       transform="translate(2.4,2)"
       d="M 0,0 H 30 V 30 H 0 Z" />
  </g>
</svg>
