<?xml version="1.0" encoding="UTF-8"?>
<svg width="81px" height="125px" viewBox="0 0 81 125" version="1.1" xmlns="http://www.w3.org/2000/svg" xmlns:xlink="http://www.w3.org/1999/xlink">
    <title>Group 27</title>
    <defs>
        <polygon id="path-1" points="0.0012 0.496 76.0237 0.496 76.0237 8.47685 0.0012 8.47685"></polygon>
    </defs>
    <g id="UI-release-001" stroke="none" stroke-width="1" fill="none" fill-rule="evenodd">
        <g id="Desktop-MADEIT-for-startups-UI-fallback" transform="translate(-680.000000, -2727.000000)">
            <g id="Group-27" transform="translate(680.000000, 2727.000000)">
                <polygon id="Fill-1" fill="#04D3D3" points="64.04225 83.8278 48.05925 67.9833 48.05925 64.3098 48.05925 56.4903 48.05925 53.1313 44.05825 57.1233 44.05825 60.5038 44.05825 68.3228 44.05825 71.9958 60.04125 87.8408 60.04775 112.4898 68.04875 112.4898 68.04875 112.4708 64.04975 112.4708"></polygon>
                <polygon id="Fill-2" fill="#1900DD" points="56.05935 56.50015 68.04235 44.51015 68.04235 44.50715 68.04235 44.50015 56.05935 56.49015"></polygon>
                <polygon id="Fill-3" fill="#04D3D3" points="60.05835 41.13785 64.05935 37.14585 64.02435 8.48085 20.02935 8.48085 20.02935 12.49385 60.02335 12.49385"></polygon>
                <polygon id="Fill-4" fill="#04D3D3" points="72.0261 12.4938 76.0226 12.4938 76.0226 8.4808 72.0236 8.4808"></polygon>
                <polygon id="Fill-5" fill="#1900DD" points="32.03465 71.9811 20.01215 83.9381 20.01215 83.9716 32.03465 72.0146"></polygon>
                <polygon id="Fill-6" fill="#04D3D3" points="0.02385 116.50255 0.02385 124.50405 76.21735 124.50405 76.21735 120.49105 4.02485 120.49105 4.02485 116.50255"></polygon>
                <polygon id="Fill-7" fill="#04D3D3" points="0 4.51285 0 12.49385 8.0275 12.49385 8.0275 44.51585 8.0335 44.51585 24.0345 60.54535 24.0345 68.50385 8.028 84.59985 8.028 84.60335 8.0275 84.60335 8.034 112.48985 12.0355 112.48985 12.0285 80.58985 12.029 80.58985 12.029 80.58685 28.0355 64.49035 28.0355 56.53235 12.0345 40.50285 12.0285 40.50285 12.0285 8.48085 4.001 8.48085 4.001 4.51285"></polygon>
                <g id="Group-23" transform="translate(4.000000, 0.004000)">
                    <polygon id="Fill-8" fill="#FB3756" points="32.03565 64.4864 32.03565 56.4864 32.03565 53.5159 16.02965 37.2519 16.02965 12.4899 12.02865 12.4899 12.02865 41.2649 28.03465 57.5289 28.03465 60.4994 28.03465 68.4994 28.03465 71.9769 32.03565 67.9979"></polygon>
                    <polygon id="Fill-10" fill="#FB3756" points="76.2185 112.4859 64.0485 112.4859 64.0495 116.4799 56.0485 116.4799 56.0475 112.4859 16.0195 112.4859 16.012 83.9679 12.0115 87.9469 12.0185 116.4984 72.2175 116.4984 72.2175 120.4869 76.2185 120.4869"></polygon>
                    <polygon id="Fill-12" fill="#FB3756" points="44.05935 53.12725 56.05835 41.15475 56.05835 41.13375 44.05935 53.10625"></polygon>
                    <polygon id="Fill-14" fill="#FB3756" points="64.04225 44.49615 68.04325 40.49315 68.04325 40.48965 68.02625 12.48965 64.02275 12.48965"></polygon>
                    <polygon id="Fill-16" fill="#FB3756" points="48.05835 68.49955 64.03635 84.58955 64.04235 84.58955 64.04835 112.46705 68.05035 112.46705 68.04335 80.57655 68.03735 80.57655 52.05935 64.48655 52.05935 56.49605 48.05835 60.49955"></polygon>
                    <g id="Group-20">
                        <mask id="mask-2" fill="white">
                            <use xlink:href="#path-1"></use>
                        </mask>
                        <g id="Clip-19"></g>
                        <polygon id="Fill-18" fill="#FB3756" mask="url(#mask-2)" points="72.0227 8.47685 76.0237 8.47685 76.0237 0.49585 0.0012 0.49585 0.0012 4.50885 72.0227 4.50885"></polygon>
                    </g>
                    <polygon id="Fill-21" fill="#FB3756" points="4.0337 112.4859 0.0247 112.4859 0.0247 116.4984 4.0347 116.4984"></polygon>
                </g>
                <polygon id="Fill-24" fill="#1900DD" points="68.04905 116.5026 68.04855 112.4901 60.04755 112.4901 60.04805 116.5026 16.01855 116.5026 16.01155 87.9506 20.01205 83.9716 20.01205 83.9381 32.03455 71.9811 32.03455 68.5036 32.03455 60.5036 32.03455 57.5331 16.02855 41.2691 16.02855 12.4936 20.02955 12.4936 20.02955 8.4811 64.02405 8.4811 64.05955 37.1461 60.05855 41.1381 60.05855 41.1591 48.05955 53.1311 48.05955 56.4906 48.05955 64.3096 48.05955 67.9831 64.04205 83.8276 64.04955 112.4711 68.04855 112.4711 68.04205 84.5936 68.03655 84.5936 52.05855 68.5036 52.05855 60.5036 56.05955 56.5001 56.05955 56.4906 68.04205 44.5001 68.02255 12.4936 72.02605 12.4936 72.02355 8.4811 76.02255 8.4811 76.02255 4.5131 4.00105 4.5131 4.00105 8.4811 12.02805 8.4811 12.02805 40.5031 12.03455 40.5031 28.03555 56.5326 28.03555 64.4906 12.02855 80.5866 12.02855 80.5901 12.02805 80.5901 12.03555 112.4901 8.03355 112.4901 8.03455 116.5026 4.02505 116.5026 4.02505 120.4911 76.21755 120.4911 76.21755 116.5026"></polygon>
                <polygon id="Fill-25" fill="#1900DD" points="24.0227 108.50355 56.0227 108.50355 56.0227 88.40155 40.0657 72.44505 36.0252 72.44505 24.0287 84.44155"></polygon>
                <polygon id="Fill-26" fill="#1900DD" points="32.14575 44.3954 40.18225 52.4319 43.67375 52.4319 51.79325 44.3119"></polygon>
            </g>
        </g>
    </g>
</svg>