<?xml version="1.0" encoding="UTF-8"?>
<svg viewBox="0 0 166 156" version="1.1" xmlns="http://www.w3.org/2000/svg" xmlns:xlink="http://www.w3.org/1999/xlink">
    <title>Group 9</title>
    <g id="UI-release-001" stroke="none" stroke-width="1" fill="none" fill-rule="evenodd">
        <g id="Desktop-contatti-form-success" transform="translate(-637.000000, -969.000000)">
            <g id="Group-2" transform="translate(345.000000, 969.000000)">
                <g id="Group-9" transform="translate(292.000000, 0.000000)">
                    <polygon id="Fill-1" fill="#0800AA" points="69.8884004 107.519861 59.1364009 150.52786 165.983725 -0.000134399995"></polygon>
                    <polygon id="Fill-2" fill="#1900DD" points="5.37640299 69.8878628 43.0077295 91.391862 165.983725 -0.000134399995"></polygon>
                    <polygon id="Fill-3" fill="#1900DD" points="69.8884004 107.519861 129.023726 139.77586 165.983725 -0.000134399995"></polygon>
                    <polygon id="Fill-4" fill="#1919F2" points="43.0077295 91.391862 59.1364009 150.52786 69.8884004 107.519861 165.983725 -0.000134399995"></polygon>
                    <polygon id="Fill-5" fill="#04D3D3" points="0 75.2641986 37.6319985 96.7681978 53.7599979 155.904195 58.7032297 148.94026 43.0079983 91.391526 8.39260767 71.6118788"></polygon>
                    <polygon id="Fill-6" fill="#04D3D3" points="84.1443423 115.295909 79.8925985 121.285445 123.647861 145.152196 125.568437 137.891236"></polygon>
                    <polygon id="Fill-7" fill="#FB3756" points="5.37640299 69.8878628 8.39301087 71.6115428 160.608397 5.37586539 125.56763 137.8909 129.023726 139.77586 165.983725 -0.000134399995"></polygon>
                    <polygon id="Fill-8" fill="#FB3756" points="78.7683425 120.671909 58.7030953 148.94026 59.1358633 150.528196 79.8925985 121.285445"></polygon>
                </g>
            </g>
        </g>
    </g>
</svg>
