<svg xmlns="http://www.w3.org/2000/svg" width="115" height="114" viewBox="0 0 115 114">
    <g fill="none" fill-rule="evenodd">
        <path fill="#04D3D3" d="M0 94.08L0 101.92 3.92 101.92 3.92 109.76 11.76 109.76 11.76 113.68 19.6 113.68 19.6 109.76 15.68 109.76 15.68 105.84 7.84 105.84 7.84 98 3.92 98 3.92 94.08zM0 78.4L0 86.24 3.92 86.24 3.92 90.16 7.84 90.16 7.84 82.32 3.92 82.32 3.92 78.4zM23.52 105.84L23.52 109.76 27.44 109.76 27.44 113.68 35.28 113.68 35.28 109.76 31.36 109.76 31.36 105.84zM39.2 105.84L39.2 109.76 43.12 109.76 43.12 113.68 50.96 113.68 50.96 109.76 47.04 109.76 47.04 105.84zM54.88 105.84L54.88 109.76 58.8 109.76 58.8 113.68 66.64 113.68 66.64 109.76 62.72 109.76 62.72 105.84zM0 31.36L0 39.2 3.92 39.2 3.92 43.12 7.84 43.12 7.84 35.28 3.92 35.28 3.92 31.36zM0 62.72L0 70.56 3.92 70.56 3.92 74.48 7.84 74.48 7.84 66.64 3.92 66.64 3.92 62.72zM0 15.68L0 23.52 3.92 23.52 3.92 27.44 7.84 27.44 7.84 19.6 3.92 19.6 3.92 15.68zM0 47.04L0 54.88 3.92 54.88 3.92 58.8 7.84 58.8 7.84 50.96 3.92 50.96 3.92 47.04z" transform="translate(1)"/>
        <path fill="#FB3756" d="M101.92 109.76L105.84 109.76 105.84 105.84 101.92 105.84zM3.92 11.76L7.84 11.76 7.84 7.84 3.92 7.84z" transform="translate(1)"/>
        <path fill="#04D3D3" d="M70.56 105.84L70.56 109.76 74.48 109.76 74.48 113.68 82.32 113.68 82.32 109.76 78.4 109.76 78.4 105.84zM86.24 105.84L86.24 109.76 90.16 109.76 90.16 113.68 98 113.68 98 109.76 94.08 109.76 94.08 105.84z" transform="translate(1)"/>
        <path fill="#FB3756" d="M62.72 0L62.72 3.92 66.64 3.92 66.64 7.84 74.48 7.84 74.48 3.92 70.56 3.92 70.56 0zM78.4 0L78.4 3.92 82.32 3.92 82.32 7.84 90.16 7.84 90.16 3.92 86.24 3.92 86.24 0zM94.08 0L94.08 3.92 98 3.92 98 7.84 105.84 7.84 105.84 15.68 109.76 15.68 109.76 19.6 113.68 19.6 113.68 11.76 109.76 11.76 109.76 3.92 101.92 3.92 101.92 0zM47.04 0L47.04 3.92 50.96 3.92 50.96 7.84 58.8 7.84 58.8 3.92 54.88 3.92 54.88 0zM31.36 0L31.36 3.92 35.28 3.92 35.28 7.84 43.12 7.84 43.12 3.92 39.2 3.92 39.2 0z" transform="translate(1)"/>
        <path fill="#04D3D3" d="M7.84 7.84L11.76 7.84 11.76 3.92 7.84 3.92z" transform="translate(1)"/>
        <path fill="#FB3756" d="M15.68 0L15.68 3.92 19.6 3.92 19.6 7.84 27.44 7.84 27.44 3.92 23.52 3.92 23.52 0zM105.84 39.2L105.84 47.04 109.76 47.04 109.76 50.96 113.68 50.96 113.68 43.12 109.76 43.12 109.76 39.2zM105.84 54.88L105.84 62.72 109.76 62.72 109.76 66.64 113.68 66.64 113.68 58.8 109.76 58.8 109.76 54.88zM105.84 23.52L105.84 31.36 109.76 31.36 109.76 35.28 113.68 35.28 113.68 27.44 109.76 27.44 109.76 23.52zM105.84 86.24L105.84 94.08 109.76 94.08 109.76 98 113.68 98 113.68 90.16 109.76 90.16 109.76 86.24zM105.84 70.56L105.84 78.4 109.76 78.4 109.76 82.32 113.68 82.32 113.68 74.48 109.76 74.48 109.76 70.56z" transform="translate(1)"/>
        <path fill="#04D3D3" d="M105.84 105.84L109.76 105.84 109.76 101.92 105.84 101.92z" transform="translate(1)"/>
        <path fill="#1900DD" d="M105.84 31.36L105.84 23.52 109.76 23.52 109.76 19.6 109.76 15.68 105.84 15.68 105.84 7.84 98 7.84 98 3.92 94.08 3.92 90.16 3.92 90.16 7.84 82.32 7.84 82.32 3.92 78.4 3.92 74.48 3.92 74.48 7.84 66.64 7.84 66.64 3.92 62.72 3.92 58.8 3.92 58.8 7.84 50.96 7.84 50.96 3.92 47.04 3.92 43.12 3.92 43.12 7.84 35.28 7.84 35.28 3.92 31.36 3.92 27.44 3.92 27.44 7.84 19.6 7.84 19.6 3.92 15.68 3.92 11.76 3.92 11.76 7.84 7.84 7.84 7.84 11.76 3.92 11.76 3.92 15.68 3.92 19.6 7.84 19.6 7.84 27.44 3.92 27.44 3.92 31.36 3.92 35.28 7.84 35.28 7.84 43.12 3.92 43.12 3.92 47.04 3.92 50.96 7.84 50.96 7.84 58.8 3.92 58.8 3.92 62.72 3.92 66.64 7.84 66.64 7.84 74.48 3.92 74.48 3.92 78.4 3.92 82.32 7.84 82.32 7.84 90.16 3.92 90.16 3.92 94.08 3.92 98 7.84 98 7.84 105.84 15.68 105.84 15.68 109.76 19.6 109.76 23.52 109.76 23.52 105.84 31.36 105.84 31.36 109.76 35.28 109.76 39.2 109.76 39.2 105.84 47.04 105.84 47.04 109.76 50.96 109.76 54.88 109.76 54.88 105.84 62.72 105.84 62.72 109.76 66.64 109.76 70.56 109.76 70.56 105.84 78.4 105.84 78.4 109.76 82.32 109.76 86.24 109.76 86.24 105.84 94.08 105.84 94.08 109.76 98 109.76 101.92 109.76 101.92 105.84 105.84 105.84 105.84 101.92 109.76 101.92 109.76 98 109.76 94.08 105.84 94.08 105.84 86.24 109.76 86.24 109.76 82.32 109.76 78.4 105.84 78.4 105.84 70.56 109.76 70.56 109.76 66.64 109.76 62.72 105.84 62.72 105.84 54.88 109.76 54.88 109.76 50.96 109.76 47.04 105.84 47.04 105.84 39.2 109.76 39.2 109.76 35.28 109.76 31.36z" transform="translate(1)"/>
        <path fill="#FFF" d="M15.68 98L101.92 98 101.92 11.76 15.68 11.76z" transform="translate(1)"/>
        <path fill="#04D3D3" d="M39.2 39.2L35.28 39.2 35.28 78.4 74.48 78.4 74.48 74.48 39.2 74.48z" transform="translate(1)"/>
        <path fill="#FB3756" d="M78.4 35.28L39.2 35.28 39.2 39.2 74.48 39.2 74.48 74.48 78.4 74.48z" transform="translate(1)"/>
        <path fill="#1900DD" d="M39.2 74.48L74.48 74.48 74.48 39.2 39.2 39.2z" transform="translate(1)"/>
    </g>
</svg>
