<svg xmlns="http://www.w3.org/2000/svg" xmlns:xlink="http://www.w3.org/1999/xlink" width="103" height="75" viewBox="0 0 103 75">
    <defs>
        <path id="prefix__a" d="M0.382 0.332L48.451 0.332 48.451 48.349 0.382 48.349z"/>
    </defs>
    <g fill="none" fill-rule="evenodd">
        <path fill="#04D3D3" d="M54.453 70.857l-16.053.008-19.2-19.2h-16V22.868H0v32h16l19.2 19.2 16.053-.008 24.184-21.197c.392-.344.705-.76.934-1.217L54.453 70.857z"/>
        <path fill="#FB3756" d="M80 35.665l-16.014-16.02L44.8 35.666l-9.857-9.6 14.142-15.997-23.541.045L12.8 19.665H3.2v3.203h6.4l12.744-9.553 23.541-.044-14.142 15.997 9.857 9.6 19.186-16.02L76.8 38.869v10.987c0 .63-.153 1.24-.43 1.791l3.63-3.18v-12.8z"/>
        <path fill="#0D00FF" d="M76.8 38.868l-16.014-16.02L41.6 38.868l-9.857-9.6 14.142-15.997-23.541.045L9.6 22.868H3.2v28.797h16l19.2 19.2 16.053-.008L76.8 51.668c.276-.55 0-12.8 0-12.8"/>
        <path fill="#04D3D3" d="M80.051 48.417v-12.8l-16.014-16.02-19.186 16.02-9.856-9.6L54.382 4.11c-.439.225-.84.526-1.174.904L31.743 29.268l9.857 9.6 19.186-16.02L76.8 38.868v12.8h22.4v-3.251H80.05z"/>
        <g transform="translate(54 .068)">
            <mask id="prefix__b" fill="#fff">
                <use xlink:href="#prefix__a"/>
            </mask>
            <path fill="#FB3756" d="M48.451 9.949l-16.023-.041-11.793-8.784c-.692-.515-1.531-.793-2.394-.792L3.651.349.381 4.043C.94 3.757 1.56 3.599 2.2 3.598l14.12-.016 12.858 9.577L45.2 13.2v35.149h3.251v-38.4z" mask="url(#prefix__b)"/>
        </g>
        <path fill="#0D00FF" d="M99.2 13.268l-16.023-.041L70.319 3.65l-14.12.016c-.64 0-1.26.16-1.817.445L34.995 26.017l9.856 9.6 19.186-16.02 16.014 16.02v12.8H99.2V13.268z"/>
    </g>
</svg>
