<svg xmlns="http://www.w3.org/2000/svg" xmlns:xlink="http://www.w3.org/1999/xlink" viewBox="0 0 125 96">
    <defs>
        <path id="prefix__a" d="M0.05 0.119L104.937 0.119 104.937 38.84 0.05 38.84z"/>
        <path id="prefix__c" d="M0.05 0.119L104.937 0.119 104.937 38.84 0.05 38.84z"/>
    </defs>
    <g fill="none" fill-rule="evenodd">
        <g>
            <path fill="#32D6D6" d="M6.05 34.12V5.08H4.84C2.167 5.08 0 7.247 0 9.92v29.04c0 2.674 2.167 4.84 4.84 4.84h82.281c2.673 0 4.84-2.166 4.84-4.84h-81.07c-2.674 0-4.84-2.166-4.84-4.84" transform="translate(13.56)"/>
            <g transform="translate(13.56) translate(6 .12)">
                <mask id="prefix__b" fill="#fff">
                    <use xlink:href="#prefix__a"/>
                </mask>
                <path fill="#F83E5A" d="M92.012 19.48V4.96c0-2.674-2.167-4.84-4.84-4.84H4.89C2.217.12.05 2.285.05 4.96h81.072c2.672 0 4.84 2.166 4.84 4.84v14.52h12.925L85.962 37.244v1.596h1.21c2.673 0 4.84-2.167 4.84-4.84v-1.596l12.925-12.924H92.012z" mask="url(#prefix__b)"/>
            </g>
            <path fill="#0D00FF" d="M104.887 24.44H91.962V9.92c0-2.673-2.168-4.84-4.84-4.84H6.05v29.04c0 2.674 2.167 4.84 4.84 4.84h81.072v-1.595l12.925-12.925z" transform="translate(13.56)"/>
        </g>
        <g>
            <path fill="#32D6D6" d="M6.05 34.12V5.08H4.84C2.167 5.08 0 7.247 0 9.92v29.04c0 2.674 2.167 4.84 4.84 4.84h82.281c2.673 0 4.84-2.166 4.84-4.84h-81.07c-2.674 0-4.84-2.166-4.84-4.84" transform="matrix(-1 0 0 1 111.72 51.12)"/>
            <g transform="matrix(-1 0 0 1 111.72 51.12) translate(6 .12)">
                <mask id="prefix__d" fill="#fff">
                    <use xlink:href="#prefix__c"/>
                </mask>
                <path fill="#F83E5A" d="M92.012 19.48V4.96c0-2.674-2.167-4.84-4.84-4.84H4.89C2.217.12.05 2.285.05 4.96h81.072c2.672 0 4.84 2.166 4.84 4.84v14.52h12.925L85.962 37.244v1.596h1.21c2.673 0 4.84-2.167 4.84-4.84v-1.596l12.925-12.924H92.012z" mask="url(#prefix__d)"/>
            </g>
            <path fill="#0D00FF" d="M104.887 24.44H91.962V9.92c0-2.673-2.168-4.84-4.84-4.84H6.05v29.04c0 2.674 2.167 4.84 4.84 4.84h81.072v-1.595l12.925-12.925z" transform="matrix(-1 0 0 1 111.72 51.12)"/>
        </g>
    </g>
</svg>
